digraph Tree {
node [shape=box] ;
0 [label="Raw kind <= 105.0\ngini = 0.435\nsamples = 1006\nvalue = [684, 322]"] ;
1 [label="Raw intensity <= 0.5\ngini = 0.069\nsamples = 701\nvalue = [676, 25]"] ;
0 -> 1 [labeldistance=2.5, labelangle=45, headlabel="True"] ;
2 [label="gini = 0.111\nsamples = 17\nvalue = [1, 16]"] ;
1 -> 2 ;
3 [label="Raw intensity <= 24.5\ngini = 0.026\nsamples = 684\nvalue = [675, 9]"] ;
1 -> 3 ;
4 [label="gini = 0.094\nsamples = 183\nvalue = [174, 9]"] ;
3 -> 4 ;
5 [label="gini = 0.0\nsamples = 501\nvalue = [501, 0]"] ;
3 -> 5 ;
6 [label="Raw intensity <= 28.5\ngini = 0.051\nsamples = 305\nvalue = [8, 297]"] ;
0 -> 6 [labeldistance=2.5, labelangle=-45, headlabel="False"] ;
7 [label="Raw intensity <= 0.5\ngini = 0.039\nsamples = 302\nvalue = [6, 296]"] ;
6 -> 7 ;
8 [label="gini = 0.0\nsamples = 242\nvalue = [0, 242]"] ;
7 -> 8 ;
9 [label="gini = 0.18\nsamples = 60\nvalue = [6, 54]"] ;
7 -> 9 ;
10 [label="gini = 0.444\nsamples = 3\nvalue = [2, 1]"] ;
6 -> 10 ;
}